{
    "malignant": "Maligno",
    "melanoma": "Melanoma",
    "amelanotic": "Amelanotico",
    "pigmented": "Pigmentado",
    "cutaneuous-lymphoma": "Linfoma Cutâneo",
    "t-cell": "Células T",
    "b-cell": "Células B",
    "epidermal": "Epidérmico",
    "basal-cell-carcinoma": "Carcinoma basocelular",
    "squamous-cell-carcinoma": "Carcinoma escamocelular",
    "dermal": "Dermal",
    "angiosarcoma": "Angiossarcoma",
    "merkel-cell-carcinoma": "Carcinoma células de merkel",
    "malignant-melanoma-amelanotic": "Maligno, Melanoma, Amelanotico",
    "magliant-melanoma-pigmented": "Maligno, Melanoma, Pigmentado",
    "malignant-cutaneous-lymphoma-tcell": "Maligno, Linfoma Cutâneo, Células T",
    "malignant-cutaneous-lymphome-bcell": "Maligno, Linfoma Cutâneo, Células B",
    "malignant-epidermal-basal-cell-carcinoma": "Maligno, Epidérmico, Carcinoma basocelular",
    "malignant-epidermal-basal-squamous": "Maligno, Epidérmico, Carcinoma escamocelular",
    "malignant-dermal-angiosarcoma": "Maligno, Dermal, Angiossarcoma",
    "malignant-dermal-merkel": "Maligno, Dermal, carcinoma células de merkel",
    "bening": "Benigno",
    "melanocytic": "Melanocítico",
    "cyst": "Cisto",
    "fibroma": "Fibroma",
    "lipoma": "Lipoma",
    "lue-nevus": "Nevo azul",
    "solar-lentigo": "Lentigo Solar",
    "cafe-au-lait-sport": "Mancha café com leite",
    "milia": "Milia epidérmica",
    "seborrheic-keratosis": "Queratose Seborréica",
    "bening-dermal-cyst": "Benigno, Dermal, Cisto",
    "bening-dermal-fibroma": "Benigno, Dermal, Fibroma",
    "bening-dermal-lipoma": "Benigno, Dermal, Lipoma",
    "bening-melanoctyc-blue": "Benigno, Melanocítico, Nevo Azul",
    "bening-melanoctyc-solar": "Benigno, Melanocítico, Lentigo Solar",
    "bening-melanoctyc-café": "Benigno, Melanocítico, Mancha café com leite",
    "bening-epidermal-milia": "Benigno, Epidérmico, Milia epidérmica",
    "bening-epidermal-seborrheic": "Benigno, Epidérmico, Queratose Seborréica",
    "neoplastic": "Não neoplásico",
    "genodermatosis": "Genodermatose",
    "congenital-dyseratosis": "Disqueratose congênita",
    "tuberous-sclerosis": "Esclerose tuberosa",
    "inflammatory": "Inflamatório",
    "psoriasis": "Psoríase",
    "stevens": "Sindroma de Stevens-Johnson",
    "rosacea": "Rosácea",
    "acne": "Acne",
    "abrasion": "Abrasão",
    "blistering": "Bolhas",
    "pemphigus-vulgaris": "Penfigoide Vulgar",
    "bullous-pemphigoid": "Penfigóide bolhoso",
    "pemphigus-foliaceus": "Pênfigo foliáceo",
    "neoplastic-genodermatosis-congenital": "Não neoplásico, Genodermatose, Disqueratose congênita",
    "neoplastic-genodermatosis-tuberous": "Não neoplásico, Genodermatose, Esclerose tuberosa",
    "neoplastic-inflamatory-psoriasis": "Não neoplásico, Inflamatório, Psoríase",
    "neoplastic-inflamatory-stevens": "Não neoplásico, Inflamatório, Sindroma de Stevens-Johnson",
    "neoplastic-inflamatory-rosacea": "Não neoplásico, Inflamatório, Rosácea",
    "neoplastic-inflamatory-acne": "Não neoplásico, Inflamatório, Acne",
    "neoplastic-inflamatory-abrasion": "Não neoplásico, Inflamatório, Abrasão",
    "neoplastic-blistering-vulgaris": "Não neoplásico, Inflamatório, Bolhas, Penfigoide Vulgar",
    "neoplastic-blistering-bullous": "Não neoplásico, Inflamatório, Bolhas, Penfigóide bolhoso",
    "neoplastic-blistering-foliaceus": "Não neoplásico, Inflamatório, Bolhas, Pênfigo foliáceo",
    "arm": "Braço",
    "eyebrow": "Sobrancelha",
    "belly": "Barriga",
    "leg": "Perna",
    "breast": "Seio",
    "thumb": "Polegar",
    "elbow-left": "Cotovelo esquerdo",
    "elbow-right": "Cotovelo direito",
    "fist": "Punho",
    "finger": "Dedo",
    "foot-right": "Pé direito",
    "foot-left": "Pé Esquerdo",
    "ankle": "Tornozelo",
    "buttocks": "Nádegas",
    "neck": "Pescoço",
    "hand": "Mão",
    "wrist": "Pulso",
    "hip": "Quadril",
    "chin": "Queixo",
    "knee": "Joelho",
    "head": "Cabeça",
    "lip": "Lábio",
    "mouth": "Boca",
    "nose": "Nariz",
    "nostril": "Narina",
    "upper-arm": "Braço",
    "thigh": "Coxa",
    "ear": "Orelha",
    "back-body": "De volta",
    "lower-leg": "Canela",
    "shoulder": "ombro",
    "forehead": "Testa",
    "waist": "Cintura",
    "cheek": "Bochecha",
    "toe": "Dedo do pé",
    "signin": "Se connecter",
    "exit": "Sortie",
    "username": "Utilizador",
    "password": "Mot de passe",
    "enter": "Entrer",
    "menu": "Menu",
    "back": "Retour",
    "status": "Statut",
    "january": "janvier",
    "february": "février",
    "march": "Mars",
    "april": "avril",
    "may": "Mai",
    "june": "juin",
    "july": "juillet",
    "august": "août",
    "september": "septembre",
    "october": "octobre",
    "november": "novembre",
    "december": "décembre",
    "year": "Année",
    "years": "Années",
    "month": "Mois",
    "months": "Mois",
    "day": "Da",
    "days": "Journées",
    "last": "Dernier",
    "address": "Adresse",
    "more-details": "Plus de détails",
    "more": "Plus",
    "detail": "Détail",
    "details": "Détails",
    "finish": "terminer",
    "loading": "Chargement",
    "other": "Autre",
    "confirmation": "Confirmation",
    "registered": "Inscrit",
    "register": "registre",
    "search": "Chercher",
    "language": "La langue",
    "english": "English",
    "spanish": "Español",
    "french": "Français",
    "portuguese": "Português",
    "home": "Principale",
    "consultation": "Consultation",
    "biopsy": "Biopsie",
    "help": "Aidez-moi",
    "support": "Soutien",
    "help-support": "Support d'aide",
    "about": "À propos",
    "logout": "Connectez - Out",
    "acquisition": "Acquisition",
    "version": "Version",
    "acquisition-version": "Version d'acquisition",
    "patient": "Patient",
    "patient-id": "ID patient",
    "please-select-disclaimer": "Veuillez choisir l'une des options suivantes",
    "location": "Emplacement",
    "date": "Rendez-vous amoureux",
    "harvest": "Récolte",
    "harvest-date": "Date de récolte",
    "sample": "Échantillon",
    "number": "Nombre",
    "sample-number": "Numéro d'échantillon",
    "notes": "Remarques",
    "disclaimer-please-confirm": "Veuillez confirmer que vous remplissez le résultat de",
    "result": "Résultat",
    "upload": "Télécharger",
    "uploading": "Téléchargement",
    "successful": "Réussi",
    "upload-successful": "Téléchargement réussi",
    "age": "Âge",
    "gender": "Le sexe",
    "phototype": "Phototype",
    "immunocompromised": "Immunodéprimé",
    "yes": "Oui",
    "no": "Non",
    "disclaimer-please-fill": "S'il vous plaît remplir les informations suivantes",
    "creating-patient-file": "Création d'un dossier patient",
    "start-adding-lesions": "Commencer à ajouter des lésions",
    "disclaimer-please-review": "S'il vous plaît examiner les informations suivantes",
    "disclaimer-take-photo": "Prendre une photo de la lésion",
    "disclaimer-insert-lesion-info": "Insérer une information sur la lésion",
    "bleeding-lesion": "Lésion hémorragique",
    "send-for-biopsy": "Envoyer pour biopsie",
    "diagnosis": "Diagnostic",
    "next-lesion": "Prochaine lésion",
    "disclaimer-please-fill-tags": "Veuillez remplir les étiquettes de lésion suivantes",
    "male": "Mâle",
    "female": "Femelle",
    "settings": "Réglages",
    "create-patient": "Créer un patient",
    "next": "Suivant",
    "retake": "Reprendre",
    "retake-photo": "Reprendre la photo",
    "language-selection": "Sélection de la langue",
    "apply-changes": "Appliquer les modifications",
    "data-gathering-version": "Version de collecte de données",
    "forgot-your-password": "Mot de passe oublié",
    "dont-have-an-account": "Ne pas avoir un compte",
    "patients-consultations": "Patients et consultations",
    "add-biopsy-results": "Ajouter des résultats de biopsie",
    "add-new-patient": "Ajouter un nouveau patient",
    "photo-acquisition": "Acquisition de photos",
    "photo-instructions": "Cliquez sur l'icône de l'appareil photo et commencez à prendre des photos des lésions cutanées. Après chaque photo de la lésion, veuillez renseigner les informations correspondantes.",
    "prev": "Retour",
    "add": "Add",
    "not-bleeding": "lésion PAS saigner",
    "bleeding": "lésion Saignement",
    "card-disclaimer-1": ", située dans le",
    "card-disclaimer-2": "avec un diagnostic primaire de",
    "lesion-sent-to-biopsy": "Lésion envoyée à la biopsie.",
    "lesion-not-sent-to-biopsy": "Lésion NON envoyée à la biopsie",
    "lesion": "Lésion",
    "add-lesion": "Add Lésion"
 }