{
    "malignant": "Malignant",
    "melanoma": "Melanoma",
    "amelanotic": "Amelanotic",
    "pigmented": "Pigmented",
    "cutaneuous-lymphoma": "Cutaneuous Lymphoma",
    "t-cell": "T-Cell",
    "b-cell": "B-Cell",
    "epidermal": "Epidermal",
    "basal-cell-carcinoma": "Basal Cell Carcinoma",
    "squamous-cell-carcinoma": "Squamous Cell Carcinoma",
    "dermal": "Dermal",
    "angiosarcoma": "Angiosarcoma",
    "merkel-cell-carcinoma": "Merkel Cell Carcinoma",
    "malignant-melanoma-amelanotic": "Malignant, Melanoma, Amelanotic",
    "magliant-melanoma-pigmented": "Malignant, Melanoma, Pigmented",
    "malignant-cutaneous-lymphoma-tcell": "Malignant, Cutaneuous Lymphoma, T-Cell",
    "malignant-cutaneous-lymphome-bcell": "Malignant, Cutaneuous Lymphoma, B-Cell",
    "malignant-epidermal-basal-cell-carcinoma": "Malignant, Epidermal, Basal Cell Carcinoma",
    "malignant-epidermal-basal-squamous": "Malignant, Epidermal, Squamous Cell Carcinoma",
    "malignant-dermal-angiosarcoma": "Malignant, Dermal, Angiosarcoma",
    "malignant-dermal-merkel": "Malignant, Dermal, Merkel Cell Carcinoma",
    "bening": "Bening",
    "melanocytic": "Melanocytic",
    "cyst": "Cyst",
    "fibroma": "Fibroma",
    "lipoma": "Lipoma",
    "lue-nevus": "Blue Nevus",
    "solar-lentigo": "Solar Lentigo",
    "cafe-au-lait-sport": "Café au Lait Spot",
    "milia": "Milia",
    "seborrheic-keratosis": "Seborrheic Keratosis",
    "bening-dermal-cyst": "Bening, Dermal, Cyst",
    "bening-dermal-fibroma": "Bening, Dermal, Fibroma",
    "bening-dermal-lipoma": "Bening, Dermal, Lipoma",
    "bening-melanoctyc-blue": "Bening, Melanocytic, Blue Nevus",
    "bening-melanoctyc-solar": "Bening, Melanocytic, Solar Lentigo",
    "bening-melanoctyc-café": "Bening, Melanocytic, Cafe au lait Spot",
    "bening-epidermal-milia": "Bening, Epidermal, Milia",
    "bening-epidermal-seborrheic": "Bening, Epidermal, Seborrheic Keratosis",
    "neoplastic": "Non Neoplastic",
    "genodermatosis": "Genodermatosis",
    "congenital-dyseratosis": "Congenital Dyseratosis",
    "tuberous-sclerosis": "Tuberous Sclerosis",
    "inflammatory": "Inflammatory",
    "psoriasis": "Psoriasis",
    "stevens": "Stevens Johnson Syndrome",
    "rosacea": "Rosacea",
    "acne": "Acne",
    "abrasion": "Abrasion",
    "blistering": "Blistering",
    "pemphigus-vulgaris": "Pemphigus Vulgaris",
    "bullous-pemphigoid": "Bullous Pemphigoid",
    "pemphigus-foliaceus": "Pemphigus Foliaceus",
    "neoplastic-genodermatosis-congenital": "Non-neoplastic, Genodermatosis, Congenital Dyskeratosis",
    "neoplastic-genodermatosis-tuberous": "Non-neoplastic, Genodermatosis, Tuberous Sclerosis",
    "neoplastic-inflamatory-psoriasis": "Non-neoplastic, Inflammatory, Psoriasis",
    "neoplastic-inflamatory-stevens": "Non-neoplastic, Inflammatory, Stevens-Johnson Syndrome",
    "neoplastic-inflamatory-rosacea": "Non-neoplastic, Inflammatory, Rosacea",
    "neoplastic-inflamatory-acne": "Non-neoplastic, Inflammatory, Acne",
    "neoplastic-inflamatory-abrasion": "Non-neoplastic, Inflammatory, Abrasion",
    "neoplastic-blistering-vulgaris": "Non-neoplastic, Inflammatory, Blistering, Pemphigus Vulgaris",
    "neoplastic-blistering-bullous": "Non-neoplastic, Inflammatory, Blistering, Bullous Pemphigoid",
    "neoplastic-blistering-foliaceus": "Non-neoplastic, Inflammatory, Blistering, Pemphigus Foliaceus",
    "subungueal-melanoma": "Subungueal Melanoma, Nail Melanoma  ",
    "melanonychia": "Melanonychia",
    "head": "Head",
    "neck": "Neck",
    "chest": "Chest",
    "abdomen": "Adbomen",
    "back-body": "Back",
    "shoulder-left": "Shoulder (left)",
    "shoulder-right": "Shoulder (right)",
    "arm-left": "Arm (left)",
    "arm-right": "Arm (right)",
    "forearm-left": "Forearm (left)",
    "forearm-right": "Forearm (right)",
    "hand-left": "Hand (left)",
    "hand-right": "Hand (right)",
    "groin": "Groin",
    "butt": "Butt/Buttcheeks",
    "thigh-left": "Thigh (left)",
    "thigh-right": "Thigh (right)",
    "leg-left": "Leg (lower, left)",
    "leg-right": "Leg (lower, right)",
    "foot-left": "Foot (left)",
    "foot-right": "Foot (right)",
    "signin": "Sign In",
    "exit": "Exit",
    "username": "Username",
    "password": "Password",
    "enter": "Enter",
    "menu": "Menu",
    "back": "Back",
    "status": "Status",
    "january": "January",
    "february": "February",
    "march": "March",
    "april": "April",
    "may": "May",
    "june": "June",
    "july": "July",
    "august": "August",
    "september": "September",
    "october": "October",
    "november": "November",
    "december": "December",
    "year": "Year",
    "years": "Years",
    "month": "Month",
    "months": "Months",
    "day": "Da",
    "days": "Days",
    "last": "Last",
    "address": "Address",
    "more-details": "More Details",
    "more": "More",
    "detail": "Detail",
    "details": "Details",
    "finish": "Finish",
    "loading": "Loading",
    "other": "Other",
    "confirmation": "Confirmation",
    "registered": "Registered",
    "register": "Register",
    "search": "Search",
    "language": "Language",
    "english": "English",
    "spanish": "Spanish",
    "french": "French",
    "portuguese": "Portuguese",
    "home": "Home",
    "consultation": "Consultation",
    "biopsy": "Biopsy",
    "help": "Help",
    "support": "Support",
    "help-support": "Help & Support",
    "about": "About",
    "logout": "Logout",
    "acquisition": "Acquisition",
    "version": "Version",
    "acquisition-version": "Acquisition Version",
    "patient": "Patient",
    "patient-id": "Patient ID",
    "please-select-disclaimer": "Please select one of the following",
    "location": "Location",
    "date": "Date",
    "harvest": "Harvest",
    "harvest-date": "Harvest Date",
    "sample": "Sample",
    "number": "Number",
    "sample-number": "Sample Number",
    "notes": "Notes",
    "disclaimer-please-confirm": "Please Confirm you are filling the result of",
    "result": "Result",
    "upload": "Upload",
    "uploading": "Uploading",
    "successful": "Successful",
    "upload-successful": "Upload Successful",
    "age": "Age",
    "gender": "Gender",
    "phototype": "Phototype",
    "immunocompromised": "Immunocompromised",
    "yes": "Yes",
    "no": "No",
    "disclaimer-please-fill": "Please Fill the following information",
    "creating-patient-file": "Creating Patient File",
    "start-adding-lesions": "Start Adding Lesions",
    "disclaimer-please-review": "Please review the following information",
    "disclaimer-take-photo": "Take Photo of the Lesion",
    "disclaimer-insert-lesion-info": "Insert Lesion Information",
    "bleeding-lesion": "Bleeding Lesion",
    "send-for-biopsy": "Send for Biopsy",
    "diagnosis": "Diagnosis",
    "next-lesion": "Next Lesion",
    "disclaimer-please-fill-tags": "Please fill the following lesion tags",
    "male": "Male",
    "female": "Female",
    "settings": "Settings",
    "create-patient": "Create Patient",
    "next": "Next",
    "retake": "Retake",
    "retake-photo": "Retake Photo",
    "language-selection": "Language Selection",
    "apply-changes": "Apply Changes",
    "data-gathering-version": "data gathering version",
    "forgot-your-password": "Forgot Your Password",
    "dont-have-an-account": "Don’t have an account",
    "patients-consultations": "Patients & Consultations",
    "add-biopsy-results": "Add Biopsy Results",
    "add-new-patient": "Add New Patient",
    "photo-acquisition": "Photo Acquisition",
    "photo-instructions": "Click on the camera icon and start taking photos of the skin lesions. After each lesion photo please fill the corresponding lesion information.",
    "back": "Back",
    "prev": "Prev",
    "add": "Add",
    "lesion": "Lesion",
    "add-lesion": "Add Lesion",
    "new-consultation": "New Consultation",
    "update": "Update",
    "num_samples": "# Samples",
    "user-not-found": "User Not Found",
    "wrong-password": "Wrong Password",
    "password-reset-required": "Password Reset Required",
    "user-not-confirmed": "User Not Confirmed",
    "not-bleeding": "Not bleeding",
    "general-info": "General Info",
    "new-patient": "New Patient",
    "card-disclaimer-1": "lesion, located in: ",
    "card-disclaimer-2": "with a primary diagnosis of",
    "bleeding": "Bleeding",
    "lesion-sent-biopsy": "Lesion sent to Biopsy",
    "lesion-not-sent-biopsy": "Lesion not sent to Biopsy",
    "lesions-acquired": "Lesions Acquired",
    "consultations": "Consultations",
    "consultation": "Consultation",
    "immuno": "Immuno",
    "compromised": "compromised",
    "preliminary-diagnosis": "Preliminary Diagnosis",
    "biopsy-diagnosis": "Biopsy Result",
    "are-you-sure-logout": "Are you sure you want to logout?",
    "leave-new-patient": "Leave new patient file creation",
    "any-changes-discarded": "Any changes will be discarded. The new patient file will not be created. ",
    "biopsy-result-updated": "Biopsy result updated",
    "patient-created": "Patient Created",
    "consultation-created": "Consultation Created",
    "lesion-created": "Lesion Created",
    "lesion-updated": "Lesion Updated",
    "uploading-image": "The consultation data is being uploaded. \n\n\nIn a few moments you will be redirected to the home screen.\n\n\nThank you for your cooperation.",
    "please-wait-take-minutes": "Please Wait, be patient.",
    "of": "of",
    "biopsy-disclaimer": "Biopsy performed with the result of",
    "patient-not-exist": "Patient Not Exist",
    "currently-uploading": "Currently uploading\nlesion number",
    "upload-confirmation": "The consultation data was uploaded sucessfully.\n\nIn a few moments you will be redirected to the home screen.\n\nThank you for your cooperation.",
    "see-lesion": "See Lesion",
    "return-to-home": "Return to Home",
    "pending-biopsy-results": "Pending Biopsy Results",
    "leave-new-consultation": "Leave new consultation creation",
    "any-changes-consultation-discarded": "Any changes will be discarded. The consultation will not be created.",
    "out-of": "out of",
}
